EMU Hacettepe EMU660 - Analitik Yöntemlerle Karar Verme 2025 – 2026 Bahar Dönemi Ara Sınav – [Ece]'s Analytics Lab
…
[1] 76

Her bir mezunun kaç farklı iş deneyimi kaydı olduğunu hesaplayınız. Sonuçları jobs_per_graduate isimli bir veri çerçevesinde (data.frame) saklayınız. Bu veri çerçevesinde student_id ve job_count (iş sayısı) sütunları bulunmalıdır.

İpucu 1: group_by() ile student_id’ye göre gruplayın.

İpucu 2: summarise() ile n() fonksiyonunu kullanarak her öğrencinin iş sayısını hesaplayın.

 jobs_per_graduate <- myemu_data |>
   group_by(student_id) |>
   summarise(job_count =n())
 jobs_per_graduate

# A tibble: 439 × 2
   student_id job_count
        <int>     <int>
 1   20726914         4
 2   20726928         1
 3   20726933         5
 4   20726947         4
 5   20726952         4
 6   20726971         2
 7   20726985         2
 8   20726999         2
 9   20727005         1
10   20727019         5
# ℹ 429 more rows
…
